%!PS-Adobe-3.0
%%Creator: graphviz version 2.38.0 (20140413.2041)
%%Title: REVISIONS
%%Pages: (atend)
%%BoundingBox: (atend)
%%EndComments
save
%%BeginProlog
/DotDict 200 dict def
DotDict begin

/setupLatin1 {
mark
/EncodingVector 256 array def
 EncodingVector 0

ISOLatin1Encoding 0 255 getinterval putinterval
EncodingVector 45 /hyphen put

% Set up ISO Latin 1 character encoding
/starnetISO {
        dup dup findfont dup length dict begin
        { 1 index /FID ne { def }{ pop pop } ifelse
        } forall
        /Encoding EncodingVector def
        currentdict end definefont
} def
/Times-Roman starnetISO def
/Times-Italic starnetISO def
/Times-Bold starnetISO def
/Times-BoldItalic starnetISO def
/Helvetica starnetISO def
/Helvetica-Oblique starnetISO def
/Helvetica-Bold starnetISO def
/Helvetica-BoldOblique starnetISO def
/Courier starnetISO def
/Courier-Oblique starnetISO def
/Courier-Bold starnetISO def
/Courier-BoldOblique starnetISO def
cleartomark
} bind def

%%BeginResource: procset graphviz 0 0
/coord-font-family /Times-Roman def
/default-font-family /Times-Roman def
/coordfont coord-font-family findfont 8 scalefont def

/InvScaleFactor 1.0 def
/set_scale {
       dup 1 exch div /InvScaleFactor exch def
       scale
} bind def

% styles
/solid { [] 0 setdash } bind def
/dashed { [9 InvScaleFactor mul dup ] 0 setdash } bind def
/dotted { [1 InvScaleFactor mul 6 InvScaleFactor mul] 0 setdash } bind def
/invis {/fill {newpath} def /stroke {newpath} def /show {pop newpath} def} bind def
/bold { 2 setlinewidth } bind def
/filled { } bind def
/unfilled { } bind def
/rounded { } bind def
/diagonals { } bind def
/tapered { } bind def

% hooks for setting color
/nodecolor { sethsbcolor } bind def
/edgecolor { sethsbcolor } bind def
/graphcolor { sethsbcolor } bind def
/nopcolor {pop pop pop} bind def

/beginpage {	% i j npages
	/npages exch def
	/j exch def
	/i exch def
	/str 10 string def
	npages 1 gt {
		gsave
			coordfont setfont
			0 0 moveto
			(\() show i str cvs show (,) show j str cvs show (\)) show
		grestore
	} if
} bind def

/set_font {
	findfont exch
	scalefont setfont
} def

% draw text fitted to its expected width
/alignedtext {			% width text
	/text exch def
	/width exch def
	gsave
		width 0 gt {
			[] 0 setdash
			text stringwidth pop width exch sub text length div 0 text ashow
		} if
	grestore
} def

/boxprim {				% xcorner ycorner xsize ysize
		4 2 roll
		moveto
		2 copy
		exch 0 rlineto
		0 exch rlineto
		pop neg 0 rlineto
		closepath
} bind def

/ellipse_path {
	/ry exch def
	/rx exch def
	/y exch def
	/x exch def
	matrix currentmatrix
	newpath
	x y translate
	rx ry scale
	0 0 1 0 360 arc
	setmatrix
} bind def

/endpage { showpage } bind def
/showpage { } def

/layercolorseq
	[	% layer color sequence - darkest to lightest
		[0 0 0]
		[.2 .8 .8]
		[.4 .8 .8]
		[.6 .8 .8]
		[.8 .8 .8]
	]
def

/layerlen layercolorseq length def

/setlayer {/maxlayer exch def /curlayer exch def
	layercolorseq curlayer 1 sub layerlen mod get
	aload pop sethsbcolor
	/nodecolor {nopcolor} def
	/edgecolor {nopcolor} def
	/graphcolor {nopcolor} def
} bind def

/onlayer { curlayer ne {invis} if } def

/onlayers {
	/myupper exch def
	/mylower exch def
	curlayer mylower lt
	curlayer myupper gt
	or
	{invis} if
} def

/curlayer 0 def

%%EndResource
%%EndProlog
%%BeginSetup
14 default-font-family set_font
1 setmiterlimit
% /arrowlength 10 def
% /arrowwidth 5 def

% make sure pdfmark is harmless for PS-interpreters other than Distiller
/pdfmark where {pop} {userdict /pdfmark /cleartomark load put} ifelse
% make '<<' and '>>' safe on PS Level 1 devices
/languagelevel where {pop languagelevel}{1} ifelse
2 lt {
    userdict (<<) cvn ([) cvn load put
    userdict (>>) cvn ([) cvn load put
} if

%%EndSetup
setupLatin1
%%Page: 1 1
%%PageBoundingBox: 36 36 247 368
%%PageOrientation: Portrait
0 0 1 beginpage
gsave
36 36 211 332 boxprim clip newpath
1 1 set_scale 0 rotate 40 40 translate
% commit_0a2840a
gsave
0 0 0 nodecolor
14 /Times-Roman set_font
109.5 14.3 moveto 46 (0a2840a) alignedtext
grestore
% commit_9c7b7f1
gsave
0 0 0 nodecolor
14 /Times-Roman set_font
71 86.3 moveto 45 (9c7b7f1) alignedtext
grestore
% commit_9c7b7f1->commit_0a2840a
gsave
1 setlinewidth
0 0 0 edgecolor
newpath 103.14 71.7 moveto
107.63 63.64 113.06 53.89 118.02 44.98 curveto
stroke
0 0 0 edgecolor
newpath 121.16 46.54 moveto
122.97 36.1 lineto
115.05 43.14 lineto
closepath fill
1 setlinewidth
solid
0 0 0 edgecolor
newpath 121.16 46.54 moveto
122.97 36.1 lineto
115.05 43.14 lineto
closepath stroke
grestore
% commit_4a4267b
gsave
0 0 0 nodecolor
14 /Times-Roman set_font
8 158.3 moveto 47 (4a4267b) alignedtext
grestore
% commit_4a4267b->commit_9c7b7f1
gsave
1 setlinewidth
0 0 0 edgecolor
newpath 46.83 143.7 moveto
54.26 135.3 63.32 125.07 71.48 115.86 curveto
stroke
0 0 0 edgecolor
newpath 74.34 117.91 moveto
78.35 108.1 lineto
69.1 113.27 lineto
closepath fill
1 setlinewidth
solid
0 0 0 edgecolor
newpath 74.34 117.91 moveto
78.35 108.1 lineto
69.1 113.27 lineto
closepath stroke
grestore
% commit_7f46b9a
gsave
0 0 0 nodecolor
14 /Times-Roman set_font
150 86.3 moveto 45 (7f46b9a) alignedtext
grestore
% commit_7f46b9a->commit_0a2840a
gsave
1 setlinewidth
0 0 0 edgecolor
newpath 162.61 71.7 moveto
158.01 63.64 152.44 53.89 147.35 44.98 curveto
stroke
0 0 0 edgecolor
newpath 150.27 43.05 moveto
142.27 36.1 lineto
144.2 46.52 lineto
closepath fill
1 setlinewidth
solid
0 0 0 edgecolor
newpath 150.27 43.05 moveto
142.27 36.1 lineto
144.2 46.52 lineto
closepath stroke
grestore
% commit_100262a
gsave
0 0 0 nodecolor
14 /Times-Roman set_font
89 158.3 moveto 47 (100262a) alignedtext
grestore
% commit_100262a->commit_9c7b7f1
gsave
1 setlinewidth
0 0 0 edgecolor
newpath 107.8 143.7 moveto
105.69 135.9 103.14 126.51 100.78 117.83 curveto
stroke
0 0 0 edgecolor
newpath 104.14 116.84 moveto
98.14 108.1 lineto
97.38 118.67 lineto
closepath fill
1 setlinewidth
solid
0 0 0 edgecolor
newpath 104.14 116.84 moveto
98.14 108.1 lineto
97.38 118.67 lineto
closepath stroke
grestore
% commit_aa32a66
gsave
0 0 0 nodecolor
14 /Times-Roman set_font
89.5 230.3 moveto 46 (aa32a66) alignedtext
grestore
% commit_aa32a66->commit_4a4267b
gsave
1 setlinewidth
0 0 0 edgecolor
newpath 92.48 215.7 moveto
82.37 206.97 69.96 196.24 58.98 186.75 curveto
stroke
0 0 0 edgecolor
newpath 61.15 183.99 moveto
51.29 180.1 lineto
56.57 189.29 lineto
closepath fill
1 setlinewidth
solid
0 0 0 edgecolor
newpath 61.15 183.99 moveto
51.29 180.1 lineto
56.57 189.29 lineto
closepath stroke
grestore
% commit_aa32a66->commit_7f46b9a
gsave
1 setlinewidth
0 0 0 edgecolor
newpath 128.65 215.6 moveto
136.92 205.81 146.49 192.97 152.5 180 curveto
161.63 160.3 166.71 136.18 169.47 118.02 curveto
stroke
0 0 0 edgecolor
newpath 172.94 118.47 moveto
170.84 108.09 lineto
166.01 117.52 lineto
closepath fill
1 setlinewidth
solid
0 0 0 edgecolor
newpath 172.94 118.47 moveto
170.84 108.09 lineto
166.01 117.52 lineto
closepath stroke
grestore
% commit_aa32a66->commit_100262a
gsave
1 setlinewidth
0 0 0 edgecolor
newpath 112.5 215.7 moveto
112.5 207.98 112.5 198.71 112.5 190.11 curveto
stroke
0 0 0 edgecolor
newpath 116 190.1 moveto
112.5 180.1 lineto
109 190.1 lineto
closepath fill
1 setlinewidth
solid
0 0 0 edgecolor
newpath 116 190.1 moveto
112.5 180.1 lineto
109 190.1 lineto
closepath stroke
grestore
% commit_43c8fe7
gsave
0 0 0 nodecolor
14 /Times-Roman set_font
90.5 302.3 moveto 44 (43c8fe7) alignedtext
grestore
% commit_43c8fe7->commit_aa32a66
gsave
1 setlinewidth
0 0 0 edgecolor
newpath 112.5 287.7 moveto
112.5 279.98 112.5 270.71 112.5 262.11 curveto
stroke
0 0 0 edgecolor
newpath 116 262.1 moveto
112.5 252.1 lineto
109 262.1 lineto
closepath fill
1 setlinewidth
solid
0 0 0 edgecolor
newpath 116 262.1 moveto
112.5 252.1 lineto
109 262.1 lineto
closepath stroke
grestore
endpage
showpage
grestore
%%PageTrailer
%%EndPage: 1
%%Trailer
%%Pages: 1
%%BoundingBox: 36 36 247 368
end
restore
%%EOF
